Lab 3
…
7) What are the demographics of the people in this study?

Here’s the code!

#general demographics of each person
hiphop_clean |>
    select(subj, ethnic, sex, age, white_or_not) |>
  
    distinct(subj, .keep_all = TRUE)|>
  
    count(across(c(ethnic, sex, age)))

# A tibble: 47 × 4
   ethnic  sex      age     n
   <chr>   <fct>  <dbl> <int>
 1 african Female    16     1
 2 african Female    18     3
 3 african Male      19     1
 4 asian   Female    17     2
 5 asian   Female    18     9
 6 asian   Female    19     1
 7 asian   Female    20     1
 8 asian   Female    21     1
 9 asian   Male      16     1
10 asian   Male      18     2
# … with 37 more rows
…
Here’s the code!

# finding least familiar words
hiphop_clean |>
  filter(white_or_not == "white", sex == "Male", age > 30) |>
  select(familiarity, word) |>
  group_by(word) |>
  summarize(avg_familiarity = mean(familiarity)) |>
  arrange(avg_familiarity) |>
  slice_min(order_by = avg_familiarity)

# A tibble: 25 × 2
   word              avg_familiarity
   <chr>                       <dbl>
 1 ay yo trip                      1
 2 beezy                           1
 3 break someone out               1
 4 catch the vapors                1
 5 crossroads                      1
 6 crump                           1
 7 dap                             1
 8 dollar cab                      1
 9 domino                          1
10 duckets                         1
# … with 15 more rows
…
